Chapter 11 Forecasting hierarchical and grouped time series | Forecasting: Principles and Practice (3rd ed)
…
tourism_hts <- tourism |>
  aggregate_key(State / Region, Trips = sum(Trips))

tourism_hts

## # A tsibble: 6,800 x 4 [1Q]
## # Key:       State, Region [85]
##    Quarter State        Region        Trips
##      <qtr> <chr*>       <chr*>        <dbl>
##  1 1998 Q1 <aggregated> <aggregated> 23182.
##  2 1998 Q2 <aggregated> <aggregated> 20323.
##  3 1998 Q3 <aggregated> <aggregated> 19827.
##  4 1998 Q4 <aggregated> <aggregated> 20830.
##  5 1999 Q1 <aggregated> <aggregated> 22087.
##  6 1999 Q2 <aggregated> <aggregated> 21458.
##  7 1999 Q3 <aggregated> <aggregated> 19914.
##  8 1999 Q4 <aggregated> <aggregated> 20028.
##  9 2000 Q1 <aggregated> <aggregated> 22339.
## 10 2000 Q2 <aggregated> <aggregated> 19941.
## # ℹ 6,790 more rows
…
The general approach:

tourism_state |>
  model(ets = ETS(Trips)) |>
  reconcile(bu = bottom_up(ets)) |>
  forecast()

## # A fable: 144 x 5 [1Q]
## # Key:     State, .model [18]
##    State  .model Quarter         Trips .mean
##    <chr*> <chr>    <qtr>        <dist> <dbl>
##  1 ACT    ets    2018 Q1  N(701, 7651)  701.
##  2 ACT    ets    2018 Q2  N(717, 8032)  717.
##  3 ACT    ets    2018 Q3  N(734, 8440)  734.
##  4 ACT    ets    2018 Q4  N(750, 8882)  750.
##  5 ACT    ets    2019 Q1  N(767, 9368)  767.
##  6 ACT    ets    2019 Q2  N(784, 9905)  784.
##  7 ACT    ets    2019 Q3 N(800, 10503)  800.
##  8 ACT    ets    2019 Q4 N(817, 11171)  817.
##  9 ACT    bu     2018 Q1  N(701, 7651)  701.
## 10 ACT    bu     2018 Q2  N(717, 8032)  717.
## # ℹ 134 more rows
…
A two level hierarchical tree diagram.

11.2.2.1 Average historical proportions

tourism_state |>
  model(ets = ETS(Trips)) |>
  reconcile(td = top_down(ets, method = "average_proportions")) |>
  forecast()

## # A fable: 144 x 5 [1Q]
## # Key:     State, .model [18]
##    State  .model Quarter         Trips .mean
##    <chr*> <chr>    <qtr>        <dist> <dbl>
##  1 ACT    ets    2018 Q1  N(701, 7651)  701.
##  2 ACT    ets    2018 Q2  N(717, 8032)  717.
##  3 ACT    ets    2018 Q3  N(734, 8440)  734.
##  4 ACT    ets    2018 Q4  N(750, 8882)  750.
##  5 ACT    ets    2019 Q1  N(767, 9368)  767.
##  6 ACT    ets    2019 Q2  N(784, 9905)  784.
##  7 ACT    ets    2019 Q3 N(800, 10503)  800.
##  8 ACT    ets    2019 Q4 N(817, 11171)  817.
##  9 ACT    td     2018 Q1   N(692, 397)  692.
## 10 ACT    td     2018 Q2   N(662, 493)  662.
## # ℹ 134 more rows

11.2.2.2 Proportions of the historical averages

tourism_state |>
  model(ets = ETS(Trips)) |>
  reconcile(td = top_down(ets, method = "proportion_averages")) |>
  forecast()

## # A fable: 144 x 5 [1Q]
## # Key:     State, .model [18]
##    State  .model Quarter         Trips .mean
##    <chr*> <chr>    <qtr>        <dist> <dbl>
##  1 ACT    ets    2018 Q1  N(701, 7651)  701.
##  2 ACT    ets    2018 Q2  N(717, 8032)  717.
##  3 ACT    ets    2018 Q3  N(734, 8440)  734.
##  4 ACT    ets    2018 Q4  N(750, 8882)  750.
##  5 ACT    ets    2019 Q1  N(767, 9368)  767.
##  6 ACT    ets    2019 Q2  N(784, 9905)  784.
##  7 ACT    ets    2019 Q3 N(800, 10503)  800.
##  8 ACT    ets    2019 Q4 N(817, 11171)  817.
##  9 ACT    td     2018 Q1   N(691, 396)  691.
## 10 ACT    td     2018 Q2   N(661, 493)  661.
## # ℹ 134 more rows

11.2.2.3 Forecast proportions

tourism_state |>
  model(ets = ETS(Trips)) |>
  reconcile(td = top_down(ets, method = "forecast_proportions")) |>
  forecast()

## # A fable: 144 x 5 [1Q]
## # Key:     State, .model [18]
##    State  .model Quarter         Trips .mean
##    <chr*> <chr>    <qtr>        <dist> <dbl>
##  1 ACT    ets    2018 Q1  N(701, 7651)  701.
##  2 ACT    ets    2018 Q2  N(717, 8032)  717.
##  3 ACT    ets    2018 Q3  N(734, 8440)  734.
##  4 ACT    ets    2018 Q4  N(750, 8882)  750.
##  5 ACT    ets    2019 Q1  N(767, 9368)  767.
##  6 ACT    ets    2019 Q2  N(784, 9905)  784.
##  7 ACT    ets    2019 Q3 N(800, 10503)  800.
##  8 ACT    ets    2019 Q4 N(817, 11171)  817.
##  9 ACT    td     2018 Q1   N(704, 411)  704.
## 10 ACT    td     2018 Q2   N(740, 618)  740.
## # ℹ 134 more rows
…
