Chapter 5 The forecaster’s toolbox | Forecasting: Principles and Practice (3rd ed)
…
5.1.1 Data preparation (tidy)

gdppc <- global_economy |>
  mutate(GDP_per_capita = GDP / Population)

gdppc

## # A tsibble: 15,150 x 10 [1Y]
## # Key:       Country [263]
##    Country     Code   Year         GDP Growth   CPI Imports Exports Population GDP_per_capita
##    <fct>       <fct> <dbl>       <dbl>  <dbl> <dbl>   <dbl>   <dbl>      <dbl>          <dbl>
##  1 Afghanistan AFG    1960  537777811.     NA    NA    7.02    4.13    8996351           59.8
##  2 Afghanistan AFG    1961  548888896.     NA    NA    8.10    4.45    9166764           59.9
##  3 Afghanistan AFG    1962  546666678.     NA    NA    9.35    4.88    9345868           58.5
##  4 Afghanistan AFG    1963  751111191.     NA    NA   16.9     9.17    9533954           78.8
##  5 Afghanistan AFG    1964  800000044.     NA    NA   18.1     8.89    9731361           82.2
##  6 Afghanistan AFG    1965 1006666638.     NA    NA   21.4    11.3     9938414          101. 
##  7 Afghanistan AFG    1966 1399999967.     NA    NA   18.6     8.57   10152331          138. 
##  8 Afghanistan AFG    1967 1673333418.     NA    NA   14.2     6.77   10372630          161. 
##  9 Afghanistan AFG    1968 1373333367.     NA    NA   15.2     8.90   10604346          130. 
## 10 Afghanistan AFG    1969 1408888922.     NA    NA   15.0    10.1    10854428          130. 
## # ℹ 15,140 more rows
…
5.1.3 Define a model (specify)

Such as the data has annual frequency, use linear trend model TSLM(GDP_per_capita ~ trend()).

5.1.4 Train the model (estimate)

fit <- gdppc |>
  model(trend_model = TSLM(GDP_per_capita ~ trend()))

## Warning: 7 errors (1 unique) encountered for trend_model
## [7] 0 (non-NA) cases

fit

## # A mable: 263 x 2
## # Key:     Country [263]
##    Country             trend_model
##    <fct>                   <model>
##  1 Afghanistan              <TSLM>
##  2 Albania                  <TSLM>
##  3 Algeria                  <TSLM>
##  4 American Samoa           <TSLM>
##  5 Andorra                  <TSLM>
##  6 Angola                   <TSLM>
##  7 Antigua and Barbuda      <TSLM>
##  8 Arab World               <TSLM>
##  9 Argentina                <TSLM>
## 10 Armenia                  <TSLM>
## # ℹ 253 more rows

This fits a linear trend model to the GDP per capita data for each combination of key variables in the tsibble.

5.1.5 Check model performance (evaluate)

Once a model has been fitted, it is important to check how well it has performed on the data.

5.1.6 Produce forecasts (forecast)

fit |> forecast(h = '3 years')

## # A fable: 789 x 5 [1Y]
## # Key:     Country, .model [263]
##    Country        .model       Year   GDP_per_capita  .mean
##    <fct>          <chr>       <dbl>           <dist>  <dbl>
##  1 Afghanistan    trend_model  2018     N(526, 9653)   526.
##  2 Afghanistan    trend_model  2019     N(534, 9689)   534.
##  3 Afghanistan    trend_model  2020     N(542, 9727)   542.
##  4 Albania        trend_model  2018  N(4716, 476419)  4716.
##  5 Albania        trend_model  2019  N(4867, 481086)  4867.
##  6 Albania        trend_model  2020  N(5018, 486012)  5018.
##  7 Algeria        trend_model  2018  N(4410, 643094)  4410.
##  8 Algeria        trend_model  2019  N(4489, 645311)  4489.
##  9 Algeria        trend_model  2020  N(4568, 647602)  4568.
## 10 American Samoa trend_model  2018 N(12491, 652926) 12491.
## # ℹ 779 more rows
…
5.2 Some simple forecasting methods

The source of the section

Simple methods which could be used as benchmarks or sanity check more complex fancy forecasting.

bricks <- aus_production |>
  filter_index('1970 Q1' ~ '2004 Q4') |>
  select(Bricks)

bricks

## # A tsibble: 140 x 2 [1Q]
##    Bricks Quarter
##     <dbl>   <qtr>
##  1    386 1970 Q1
##  2    428 1970 Q2
##  3    434 1970 Q3
##  4    417 1970 Q4
##  5    385 1971 Q1
##  6    433 1971 Q2
##  7    453 1971 Q3
##  8    436 1971 Q4
##  9    399 1972 Q1
## 10    461 1972 Q2
## # ℹ 130 more rows
…
brick_fit

## # A mable: 1 x 4
##   Seasonal_naive   Naive         Drift    Mean
##          <model> <model>       <model> <model>
## 1       <SNAIVE> <NAIVE> <RW w/ drift>  <MEAN>

5.2.6 Producing forecasts

brick_fc <- brick_fit |>
  forecast(h = '5 years')

brick_fc

## # A fable: 80 x 4 [1Q]
## # Key:     .model [4]
##    .model         Quarter       Bricks .mean
##    <chr>            <qtr>       <dist> <dbl>
##  1 Seasonal_naive 2005 Q3 N(428, 2336)   428
##  2 Seasonal_naive 2005 Q4 N(397, 2336)   397
##  3 Seasonal_naive 2006 Q1 N(355, 2336)   355
##  4 Seasonal_naive 2006 Q2 N(435, 2336)   435
##  5 Seasonal_naive 2006 Q3 N(428, 4672)   428
##  6 Seasonal_naive 2006 Q4 N(397, 4672)   397
##  7 Seasonal_naive 2007 Q1 N(355, 4672)   355
##  8 Seasonal_naive 2007 Q2 N(435, 4672)   435
##  9 Seasonal_naive 2007 Q3 N(428, 7008)   428
## 10 Seasonal_naive 2007 Q4 N(397, 7008)   397
## # ℹ 70 more rows
…
\(\{e_t\}\) uncorrelated. If they aren’t, then information left in residuals that should be used in computing forecasts.

\(\{e_t\}\) have mean zero. If they don’t, then forecast are biased and we need to adjust for this, which are called innovation residuals. If the residuals have mean \(m\), then simply add \(m\) to all forecasts.

Useful properties: (for distributions & prediction intervals)

\(\{e_t\}\) (innovation residuals) have constant variance “homoscedasticity”

\(\{e_t\}\) are normally distributed

# to get residuals
augment(beer_fit)

## # A tsibble: 240 x 6 [1Q]
## # Key:       .model [4]
##    .model Quarter  Beer .fitted .resid .innov
##    <chr>    <qtr> <dbl>   <dbl>  <dbl>  <dbl>
##  1 Mean   1992 Q1   443    436.   6.55   6.55
##  2 Mean   1992 Q2   410    436. -26.4  -26.4 
##  3 Mean   1992 Q3   420    436. -16.4  -16.4 
##  4 Mean   1992 Q4   532    436.  95.6   95.6 
##  5 Mean   1993 Q1   433    436.  -3.45  -3.45
##  6 Mean   1993 Q2   421    436. -15.4  -15.4 
##  7 Mean   1993 Q3   410    436. -26.4  -26.4 
##  8 Mean   1993 Q4   512    436.  75.6   75.6 
##  9 Mean   1994 Q1   449    436.  12.6   12.6 
## 10 Mean   1994 Q2   381    436. -55.4  -55.4 
## # ℹ 230 more rows
…
fb_stock |>
  model(NAIVE(Close)) |>
  augment()

## # A tsibble: 1,258 x 7 [1]
## # Key:       Symbol, .model [1]
##    Symbol .model       traiding_day Close .fitted .resid .innov
##    <chr>  <chr>               <int> <dbl>   <dbl>  <dbl>  <dbl>
##  1 FB     NAIVE(Close)            1  54.7    NA   NA     NA    
##  2 FB     NAIVE(Close)            2  54.6    54.7 -0.150 -0.150
##  3 FB     NAIVE(Close)            3  57.2    54.6  2.64   2.64 
##  4 FB     NAIVE(Close)            4  57.9    57.2  0.720  0.720
##  5 FB     NAIVE(Close)            5  58.2    57.9  0.310  0.310
##  6 FB     NAIVE(Close)            6  57.2    58.2 -1.01  -1.01 
##  7 FB     NAIVE(Close)            7  57.9    57.2  0.720  0.720
##  8 FB     NAIVE(Close)            8  55.9    57.9 -2.03  -2.03 
##  9 FB     NAIVE(Close)            9  57.7    55.9  1.83   1.83 
## 10 FB     NAIVE(Close)           10  57.6    57.7 -0.140 -0.140
## # ℹ 1,248 more rows
…
Check the residuals from forecasting the series using the naive method.

# fit the model and get the residuals
aug <- google_2015 |>
  model(NAIVE(Close)) |>
  augment() 

aug

## # A tsibble: 252 x 7 [1]
## # Key:       Symbol, .model [1]
##    Symbol .model         day Close .fitted  .resid  .innov
##    <chr>  <chr>        <int> <dbl>   <dbl>   <dbl>   <dbl>
##  1 GOOG   NAIVE(Close)     1  522.     NA   NA      NA    
##  2 GOOG   NAIVE(Close)     2  511.    522. -10.9   -10.9  
##  3 GOOG   NAIVE(Close)     3  499.    511. -11.8   -11.8  
##  4 GOOG   NAIVE(Close)     4  498.    499.  -0.855  -0.855
##  5 GOOG   NAIVE(Close)     5  500.    498.   1.57    1.57 
##  6 GOOG   NAIVE(Close)     6  493.    500.  -6.47   -6.47 
##  7 GOOG   NAIVE(Close)     7  490.    493.  -3.60   -3.60 
##  8 GOOG   NAIVE(Close)     8  493.    490.   3.61    3.61 
##  9 GOOG   NAIVE(Close)     9  498.    493.   4.66    4.66 
## 10 GOOG   NAIVE(Close)    10  499.    498.   0.915   0.915
## # ℹ 242 more rows
…
5.5.6 Prediction intervals from bootstrapped residuals

fit <- google_2015 |>
  model(NAIVE(Close)) 

sim <- fit |>
  generate(h=30, times = 5, bootstrap = TRUE)

sim

## # A tsibble: 150 x 6 [1]
## # Key:       Symbol, .model, .rep [5]
##    Symbol .model       .rep    day   .innov  .sim
##    <chr>  <chr>        <chr> <dbl>    <dbl> <dbl>
##  1 GOOG   NAIVE(Close) 1       253  0.00602  759.
##  2 GOOG   NAIVE(Close) 1       254 -9.60     749.
##  3 GOOG   NAIVE(Close) 1       255 -1.07     748.
##  4 GOOG   NAIVE(Close) 1       256  6.53     755.
##  5 GOOG   NAIVE(Close) 1       257 -7.92     747.
##  6 GOOG   NAIVE(Close) 1       258 -2.04     745.
##  7 GOOG   NAIVE(Close) 1       259  2.91     748.
##  8 GOOG   NAIVE(Close) 1       260  3.51     751.
##  9 GOOG   NAIVE(Close) 1       261 -4.31     747.
## 10 GOOG   NAIVE(Close) 1       262  2.50     749.
## # ℹ 140 more rows
…
# bootstrapped prediction intervals

fc <- fit |> forecast(h = 30, bootstrap = TRUE, times = 1000)
fc

## # A fable: 30 x 5 [1]
## # Key:     Symbol, .model [1]
##    Symbol .model         day        Close .mean
##    <chr>  <chr>        <dbl>       <dist> <dbl>
##  1 GOOG   NAIVE(Close)   253 sample[1000]  759.
##  2 GOOG   NAIVE(Close)   254 sample[1000]  758.
##  3 GOOG   NAIVE(Close)   255 sample[1000]  759.
##  4 GOOG   NAIVE(Close)   256 sample[1000]  759.
##  5 GOOG   NAIVE(Close)   257 sample[1000]  759.
##  6 GOOG   NAIVE(Close)   258 sample[1000]  759.
##  7 GOOG   NAIVE(Close)   259 sample[1000]  759.
##  8 GOOG   NAIVE(Close)   260 sample[1000]  760.
##  9 GOOG   NAIVE(Close)   261 sample[1000]  760.
## 10 GOOG   NAIVE(Close)   262 sample[1000]  760.
## # ℹ 20 more rows
…
A model which fits the training data wel will not necessarily forecast well

A perfect fit can always be obtained by using a model with enough parameters

Over-fitting a model to data is just bad as falling to idetify a systematic patterns in the data

The test set must not be used for any aspect of model development of calculation of forecasts

Forecast accuracy is based only on the test data

5.8.2 Functions to subset a time series

aus_production |> filter(year(Quarter) >= 1995)

## # A tsibble: 62 x 7 [1Q]
##    Quarter  Beer Tobacco Bricks Cement Electricity   Gas
##      <qtr> <dbl>   <dbl>  <dbl>  <dbl>       <dbl> <dbl>
##  1 1995 Q1   426    4714    430   1626       41768   131
##  2 1995 Q2   408    3939    457   1703       43686   167
##  3 1995 Q3   416    6137    417   1733       46022   181
##  4 1995 Q4   520    4739    370   1545       42800   145
##  5 1996 Q1   409    4275    310   1526       43661   133
##  6 1996 Q2   398    5239    358   1593       44707   162
##  7 1996 Q3   398    6293    379   1706       46326   184
##  8 1996 Q4   507    5575    369   1699       43346   146
##  9 1997 Q1   432    4802    330   1511       43938   135
## 10 1997 Q2   398    5523    390   1785       45828   171
## # ℹ 52 more rows

aus_production |> filter_index('1995 Q1' ~ .)

## # A tsibble: 62 x 7 [1Q]
##    Quarter  Beer Tobacco Bricks Cement Electricity   Gas
##      <qtr> <dbl>   <dbl>  <dbl>  <dbl>       <dbl> <dbl>
##  1 1995 Q1   426    4714    430   1626       41768   131
##  2 1995 Q2   408    3939    457   1703       43686   167
##  3 1995 Q3   416    6137    417   1733       46022   181
##  4 1995 Q4   520    4739    370   1545       42800   145
##  5 1996 Q1   409    4275    310   1526       43661   133
##  6 1996 Q2   398    5239    358   1593       44707   162
##  7 1996 Q3   398    6293    379   1706       46326   184
##  8 1996 Q4   507    5575    369   1699       43346   146
##  9 1997 Q1   432    4802    330   1511       43938   135
## 10 1997 Q2   398    5523    390   1785       45828   171
## # ℹ 52 more rows
…
# subset the first year of data from each time series in the data
aus_retail |>
  group_by(State, Industry) |>
  slice(1:12)

## # A tsibble: 1,824 x 5 [1M]
## # Key:       State, Industry [152]
## # Groups:    State, Industry [152]
##    State                        Industry                                 `Series ID`    Month Turnover
##    <chr>                        <chr>                                    <chr>          <mth>    <dbl>
##  1 Australian Capital Territory Cafes, restaurants and catering services A3349849A   1982 Apr      4.4
##  2 Australian Capital Territory Cafes, restaurants and catering services A3349849A   1982 May      3.4
##  3 Australian Capital Territory Cafes, restaurants and catering services A3349849A   1982 Jun      3.6
##  4 Australian Capital Territory Cafes, restaurants and catering services A3349849A   1982 Jul      4  
##  5 Australian Capital Territory Cafes, restaurants and catering services A3349849A   1982 Aug      3.6
##  6 Australian Capital Territory Cafes, restaurants and catering services A3349849A   1982 Sep      4.2
##  7 Australian Capital Territory Cafes, restaurants and catering services A3349849A   1982 Oct      4.8
##  8 Australian Capital Territory Cafes, restaurants and catering services A3349849A   1982 Nov      5.4
##  9 Australian Capital Territory Cafes, restaurants and catering services A3349849A   1982 Dec      6.9
## 10 Australian Capital Territory Cafes, restaurants and catering services A3349849A   1983 Jan      3.8
## # ℹ 1,814 more rows
…
The source of the section

5.9.1 Quantile scores

Get the full time series.

# time series
google_stock <- gafa_stock |>
  filter(Symbol == 'GOOG', year(Date) >= 2015) |>
  mutate(day = row_number()) |>
  update_tsibble(index = day, regular = TRUE)

google_stock

## # A tsibble: 1,006 x 9 [1]
## # Key:       Symbol [1]
##    Symbol Date        Open  High   Low Close Adj_Close  Volume   day
##    <chr>  <date>     <dbl> <dbl> <dbl> <dbl>     <dbl>   <dbl> <int>
##  1 GOOG   2015-01-02  526.  528.  521.  522.      522. 1447600     1
##  2 GOOG   2015-01-05  520.  521.  510.  511.      511. 2059800     2
##  3 GOOG   2015-01-06  512.  513.  498.  499.      499. 2899900     3
##  4 GOOG   2015-01-07  504.  504.  497.  498.      498. 2065100     4
##  5 GOOG   2015-01-08  495.  501.  488.  500.      500. 3353600     5
##  6 GOOG   2015-01-09  502.  502.  492.  493.      493. 2069400     6
##  7 GOOG   2015-01-12  492.  493.  485.  490.      490. 2322400     7
##  8 GOOG   2015-01-13  496.  500.  490.  493.      493. 2370500     8
##  9 GOOG   2015-01-14  492.  500.  490.  498.      498. 2235700     9
## 10 GOOG   2015-01-15  503.  503.  495.  499.      499. 2715800    10
## # ℹ 996 more rows

SPlit the data into the training set and test set.

# training set
google_2015 <- google_stock |>
  filter(year(Date) == 2015)

google_2015

## # A tsibble: 252 x 9 [1]
## # Key:       Symbol [1]
##    Symbol Date        Open  High   Low Close Adj_Close  Volume   day
##    <chr>  <date>     <dbl> <dbl> <dbl> <dbl>     <dbl>   <dbl> <int>
##  1 GOOG   2015-01-02  526.  528.  521.  522.      522. 1447600     1
##  2 GOOG   2015-01-05  520.  521.  510.  511.      511. 2059800     2
##  3 GOOG   2015-01-06  512.  513.  498.  499.      499. 2899900     3
##  4 GOOG   2015-01-07  504.  504.  497.  498.      498. 2065100     4
##  5 GOOG   2015-01-08  495.  501.  488.  500.      500. 3353600     5
##  6 GOOG   2015-01-09  502.  502.  492.  493.      493. 2069400     6
##  7 GOOG   2015-01-12  492.  493.  485.  490.      490. 2322400     7
##  8 GOOG   2015-01-13  496.  500.  490.  493.      493. 2370500     8
##  9 GOOG   2015-01-14  492.  500.  490.  498.      498. 2235700     9
## 10 GOOG   2015-01-15  503.  503.  495.  499.      499. 2715800    10
## # ℹ 242 more rows
…
## # A mable: 1 x 4
## # Key:     Symbol [1]
##   Symbol    Mean   Naive         Drift
##   <chr>  <model> <model>       <model>
## 1 GOOG    <MEAN> <NAIVE> <RW w/ drift>

Make the forecasts on the test set.

google_fc <- google_fit |>
  forecast(google_jan_2016)

google_fc

## # A fable: 57 x 11 [1]
## # Key:     Symbol, .model [3]
##    Symbol .model   day        Close .mean Date        Open  High   Low Adj_Close  Volume
##    <chr>  <chr>  <int>       <dist> <dbl> <date>     <dbl> <dbl> <dbl>     <dbl>   <dbl>
##  1 GOOG   Mean     253 N(602, 6766)  602. 2016-01-04  743   744.  731.      742. 3272800
##  2 GOOG   Mean     254 N(602, 6766)  602. 2016-01-05  746.  752   739.      743. 1950700
##  3 GOOG   Mean     255 N(602, 6766)  602. 2016-01-06  730   747.  729.      744. 1947000
##  4 GOOG   Mean     256 N(602, 6766)  602. 2016-01-07  730.  738.  719.      726. 2963700
##  5 GOOG   Mean     257 N(602, 6766)  602. 2016-01-08  731.  733.  713       714. 2450900
##  6 GOOG   Mean     258 N(602, 6766)  602. 2016-01-11  717.  719.  704.      716. 2089300
##  7 GOOG   Mean     259 N(602, 6766)  602. 2016-01-12  722.  729.  717.      726. 2024500
##  8 GOOG   Mean     260 N(602, 6766)  602. 2016-01-13  731.  735.  699.      701. 2501700
##  9 GOOG   Mean     261 N(602, 6766)  602. 2016-01-14  705.  722.  689.      715. 2225800
## 10 GOOG   Mean     262 N(602, 6766)  602. 2016-01-15  692.  707.  685.      694. 3608100
## # ℹ 47 more rows
…
5.10 Time series cross-validation

The source of the section

# Time series cross-validation accuracy
google_2015_tr <- google_2015 |>
  stretch_tsibble(.init = 3, .step = 1) |>
  relocate(Date, Symbol, .id)
google_2015_tr

## # A tsibble: 31,875 x 10 [1]
## # Key:       Symbol, .id [250]
##    Date       Symbol   .id  Open  High   Low Close Adj_Close  Volume   day
##    <date>     <chr>  <int> <dbl> <dbl> <dbl> <dbl>     <dbl>   <dbl> <int>
##  1 2015-01-02 GOOG       1  526.  528.  521.  522.      522. 1447600     1
##  2 2015-01-05 GOOG       1  520.  521.  510.  511.      511. 2059800     2
##  3 2015-01-06 GOOG       1  512.  513.  498.  499.      499. 2899900     3
##  4 2015-01-02 GOOG       2  526.  528.  521.  522.      522. 1447600     1
##  5 2015-01-05 GOOG       2  520.  521.  510.  511.      511. 2059800     2
##  6 2015-01-06 GOOG       2  512.  513.  498.  499.      499. 2899900     3
##  7 2015-01-07 GOOG       2  504.  504.  497.  498.      498. 2065100     4
##  8 2015-01-02 GOOG       3  526.  528.  521.  522.      522. 1447600     1
##  9 2015-01-05 GOOG       3  520.  521.  510.  511.      511. 2059800     2
## 10 2015-01-06 GOOG       3  512.  513.  498.  499.      499. 2899900     3
## # ℹ 31,865 more rows
…
# => Drift method is the best because of drift method shows the linear trend

beer_production <- aus_production |>
  filter(year(Quarter) >= 1992)

beer_production

## # A tsibble: 74 x 7 [1Q]
##    Quarter  Beer Tobacco Bricks Cement Electricity   Gas
##      <qtr> <dbl>   <dbl>  <dbl>  <dbl>       <dbl> <dbl>
##  1 1992 Q1   443    5777    383   1289       38332   117
##  2 1992 Q2   410    5853    404   1501       39774   151
##  3 1992 Q3   420    6416    446   1539       42246   175
##  4 1992 Q4   532    5825    420   1568       38498   129
##  5 1993 Q1   433    5724    394   1450       39460   116
##  6 1993 Q2   421    6036    462   1668       41356   149
##  7 1993 Q3   410    6570    475   1648       42949   163
##  8 1993 Q4   512    5675    443   1863       40974   138
##  9 1994 Q1   449    5311    421   1468       40162   127
## 10 1994 Q2   381    5717    475   1755       41199   159
## # ℹ 64 more rows
…
