Chapter 3 Time series decomposition | Forecasting: Principles and Practice (3rd ed)
…
aus_production |>
  mutate(Gas_boxcox = box_cox(Gas, lambda)) |>
  mutate(Gas_inv = inv_box_cox(Gas_boxcox, lambda)) |>
  select(Gas, Gas_boxcox, Gas_inv)

## # A tsibble: 218 x 4 [1Q]
##      Gas Gas_boxcox Gas_inv Quarter
##    <dbl>      <dbl>   <dbl>   <qtr>
##  1     5       1.76    5.00 1956 Q1
##  2     6       1.97    6.00 1956 Q2
##  3     7       2.16    7    1956 Q3
##  4     6       1.97    6.00 1956 Q4
##  5     5       1.76    5.00 1957 Q1
##  6     7       2.16    7    1957 Q2
##  7     7       2.16    7    1957 Q3
##  8     6       1.97    6.00 1957 Q4
##  9     5       1.76    5.00 1958 Q1
## 10     7       2.16    7    1958 Q2
## # ℹ 208 more rows
…
STL decomposition.

dcmp <- us_retail_employment |>
  model(stl = STL(Employed))

dcmp |> components()

## # A dable: 357 x 7 [1M]
## # Key:     .model [1]
## # :        Employed = trend + season_year + remainder
##    .model    Month Employed  trend season_year remainder season_adjust
##    <chr>     <mth>    <dbl>  <dbl>       <dbl>     <dbl>         <dbl>
##  1 stl    1990 Jan   13256. 13288.      -33.0      0.836        13289.
##  2 stl    1990 Feb   12966. 13269.     -258.     -44.6          13224.
##  3 stl    1990 Mar   12938. 13250.     -290.     -22.1          13228.
##  4 stl    1990 Apr   13012. 13231.     -220.       1.05         13232.
##  5 stl    1990 May   13108. 13211.     -114.      11.3          13223.
##  6 stl    1990 Jun   13183. 13192.      -24.3     15.5          13207.
##  7 stl    1990 Jul   13170. 13172.      -23.2     21.6          13193.
##  8 stl    1990 Aug   13160. 13151.       -9.52    17.8          13169.
##  9 stl    1990 Sep   13113. 13131.      -39.5     22.0          13153.
## 10 stl    1990 Oct   13185. 13110.       61.6     13.2          13124.
## # ℹ 347 more rows
…
Computing 5-MA.

# m = 5 => (5 - 1)/2 = 2 = k

global_economy |>
  filter(Code == 'AUS') |>
  mutate(`5-MA` = slider::slide_dbl(Exports, mean, .before = 2, .after = 2, 
                                    .complete = T)) |>
  select(Exports, `5-MA`)

## # A tsibble: 58 x 3 [1Y]
##    Exports `5-MA`  Year
##      <dbl>  <dbl> <dbl>
##  1    13.0   NA    1960
##  2    12.4   NA    1961
##  3    13.9   13.5  1962
##  4    13.0   13.5  1963
##  5    14.9   13.6  1964
##  6    13.2   13.4  1965
##  7    12.9   13.3  1966
##  8    12.9   12.7  1967
##  9    12.3   12.6  1968
## 10    12.0   12.6  1969
## # ℹ 48 more rows
…
This is so they are symmetric: in a moving average of order \(m = 2k + 1\), the middle observation, and \(k\) observations on either side, are averaged. But if \(m\) was even, it would no longer be symmetric.

3.3.2 Moving averages of moving averages

To make an even-order moving average symmetric, apply a moving average to moving average.

aus_production |>
  filter(year(Quarter) >= 1992) |>
  select(Quarter, Beer) |>
  mutate(`4-MA` = slider::slide_dbl(Beer, mean, .before = 1, .after = 2,  
                                     .complete = TRUE),
         `2x4-MA` = slider::slide_dbl(`4-MA`, mean, .before = 1, .after = 0,  
                                     .complete = TRUE))

## # A tsibble: 74 x 4 [1Q]
##    Quarter  Beer `4-MA` `2x4-MA`
##      <qtr> <dbl>  <dbl>    <dbl>
##  1 1992 Q1   443    NA       NA 
##  2 1992 Q2   410   451.      NA 
##  3 1992 Q3   420   449.     450 
##  4 1992 Q4   532   452.     450.
##  5 1993 Q1   433   449      450.
##  6 1993 Q2   421   444      446.
##  7 1993 Q3   410   448      446 
##  8 1993 Q4   512   438      443 
##  9 1994 Q1   449   441.     440.
## 10 1994 Q2   381   446      444.
## # ℹ 64 more rows
…
\[
\hat{T_t} = \frac {1} {2} \left[ \frac {1} {m} \sum_{j=-k}^k y_{t+j} \right], \text{where} \space m = 2k
\]

In general, an even order MA should be followed by an even order MA to make it symmetric. Similarly, an odd order MA should be followed by an odd order MA.

aus_production |>
  filter(year(Quarter) >= 1992) |>
  select(Quarter, Beer) |>
  mutate(`3-MA` = slider::slide_dbl(Beer, mean, .before = 1, .after = 1,  
                                     .complete = TRUE),
         `3x3-MA` = slider::slide_dbl(`3-MA`, mean, .before = 1, .after = 1,  
                                     .complete = TRUE))

## # A tsibble: 74 x 4 [1Q]
##    Quarter  Beer `3-MA` `3x3-MA`
##      <qtr> <dbl>  <dbl>    <dbl>
##  1 1992 Q1   443    NA       NA 
##  2 1992 Q2   410   424.      NA 
##  3 1992 Q3   420   454      447.
##  4 1992 Q4   532   462.     459.
##  5 1993 Q1   433   462      448.
##  6 1993 Q2   421   421.     444.
##  7 1993 Q3   410   448.     442 
##  8 1993 Q4   512   457      451.
##  9 1994 Q1   449   447.     441.
## 10 1994 Q2   381   418.     437.
## # ℹ 64 more rows
…
\[
\hat R_t = y_t /( \hat T_t \hat S_t)
\] ## STL decomposition

The source of the section

STL decomposition only provides facilities for additive decompositions. A multiplicative decomposition can be obtained by first taking logs of the data, then back-transforming the components. Decompositions that are between additive and multiplicative can be obtained using a Box-Cox transformation of the data with \(0 < \lambda < 1\). A value of $= 0 $ gives a multiplicative decomposition while \(\lambda = 1\) gives an additive decomposition.

us_retail_employment |>
  model(stl = STL(Employed ~ trend(window = 7) +
                    season(window = 'periodic'), robust = TRUE)) |>
  components()

## # A dable: 357 x 7 [1M]
## # Key:     .model [1]
## # :        Employed = trend + season_year + remainder
##    .model    Month Employed  trend season_year remainder season_adjust
##    <chr>     <mth>    <dbl>  <dbl>       <dbl>     <dbl>         <dbl>
##  1 stl    1990 Jan   13256. 13250.      -83.1      88.7         13339.
##  2 stl    1990 Feb   12966. 13234.     -279.       11.1         13245.
##  3 stl    1990 Mar   12938. 13220.     -266.      -15.4         13204.
##  4 stl    1990 Apr   13012. 13206.     -190.       -3.00        13203.
##  5 stl    1990 May   13108. 13197.      -91.0       2.48        13199.
##  6 stl    1990 Jun   13183. 13189.       -9.67      3.44        13192.
##  7 stl    1990 Jul   13170. 13181.       -8.50     -2.14        13179.
##  8 stl    1990 Aug   13160. 13172.       -6.51     -6.04        13166.
##  9 stl    1990 Sep   13113. 13158.      -86.0      41.3         13199.
## 10 stl    1990 Oct   13185. 13139.       43.7       2.88        13141.
## # ℹ 347 more rows
…
