Chapter 4 Time series features | Forecasting: Principles and Practice (3rd ed)
…
Different features of time series could be used to explore the properties of the series.

4.1 Some simple statistics

The source of the section

tourism |>
  features(Trips, list(mean=mean)) |>
  arrange(mean)

## # A tibble: 304 × 4
##    Region          State Purpose   mean
##    <chr>           <chr> <chr>    <dbl>
##  1 Kangaroo Island SA    Other    0.340
##  2 MacDonnell      NT    Other    0.449
##  3 Wilderness West TAS   Other    0.478
##  4 Barkly          NT    Other    0.632
##  5 Clare Valley    SA    Other    0.898
##  6 Barossa         SA    Other    1.02 
##  7 Kakadu Arnhem   NT    Other    1.04 
##  8 Lasseter        NT    Other    1.14 
##  9 Wimmera         VIC   Other    1.15 
## 10 MacDonnell      NT    Visiting 1.18 
## # ℹ 294 more rows

tourism |>
  features(Trips, quantile)

## # A tibble: 304 × 8
##    Region         State Purpose     `0%`  `25%`   `50%`  `75%` `100%`
##    <chr>          <chr> <chr>      <dbl>  <dbl>   <dbl>  <dbl>  <dbl>
##  1 Adelaide       SA    Business  68.7   134.   153.    177.   242.  
##  2 Adelaide       SA    Holiday  108.    135.   154.    172.   224.  
##  3 Adelaide       SA    Other     25.9    43.9   53.8    62.5  107.  
##  4 Adelaide       SA    Visiting 137.    179.   206.    229.   270.  
##  5 Adelaide Hills SA    Business   0       0      1.26    3.92  28.6 
##  6 Adelaide Hills SA    Holiday    0       5.77   8.52   14.1   35.8 
##  7 Adelaide Hills SA    Other      0       0      0.908   2.09   8.95
##  8 Adelaide Hills SA    Visiting   0.778   8.91  12.2    16.8   81.1 
##  9 Alice Springs  NT    Business   1.01    9.13  13.3    18.5   34.1 
## 10 Alice Springs  NT    Holiday    2.81   16.9   31.5    44.8   76.5 
## # ℹ 294 more rows

4.1.1 ACF features

The source of the section

tourism |>
  features(Trips, feat_acf)

## # A tibble: 304 × 10
##    Region         State Purpose      acf1 acf10 diff1_acf1 diff1_acf10 diff2_acf1 diff2_acf10 season_acf1
##    <chr>          <chr> <chr>       <dbl> <dbl>      <dbl>       <dbl>      <dbl>       <dbl>       <dbl>
##  1 Adelaide       SA    Business  0.0333  0.131     -0.520       0.463     -0.676       0.741      0.201 
##  2 Adelaide       SA    Holiday   0.0456  0.372     -0.343       0.614     -0.487       0.558      0.351 
##  3 Adelaide       SA    Other     0.517   1.15      -0.409       0.383     -0.675       0.792      0.342 
##  4 Adelaide       SA    Visiting  0.0684  0.294     -0.394       0.452     -0.518       0.447      0.345 
##  5 Adelaide Hills SA    Business  0.0709  0.134     -0.580       0.415     -0.750       0.746     -0.0628
##  6 Adelaide Hills SA    Holiday   0.131   0.313     -0.536       0.500     -0.716       0.906      0.208 
##  7 Adelaide Hills SA    Other     0.261   0.330     -0.253       0.317     -0.457       0.392      0.0745
##  8 Adelaide Hills SA    Visiting  0.139   0.117     -0.472       0.239     -0.626       0.408      0.170 
##  9 Alice Springs  NT    Business  0.217   0.367     -0.500       0.381     -0.658       0.587      0.315 
## 10 Alice Springs  NT    Holiday  -0.00660 2.11      -0.153       2.11      -0.274       1.55       0.729 
## # ℹ 294 more rows
…
Strength of seasonality:

A series with seasonal strength \(F_S\) close to 0 exhibits almost no seasonality, while a series with strong seasonality will have \(F_S\) close to 1.

\[
F_S = max(0, 1 - \frac {Var(R_t)} {Var(S_t + R_t)}), [0, 1]
\]

tourism |>
  features(Trips, feat_stl)

## # A tibble: 304 × 12
##    Region         State Purpose  trend_strength seasonal_strength_year seasonal_peak_year seasonal_trough_year  spikiness linearity curvature stl_e_acf1 stl_e_acf10
##    <chr>          <chr> <chr>             <dbl>                  <dbl>              <dbl>                <dbl>      <dbl>     <dbl>     <dbl>      <dbl>       <dbl>
##  1 Adelaide       SA    Business          0.464                  0.407                  3                    1 158.          -5.31     71.6       -0.532       0.594
##  2 Adelaide       SA    Holiday           0.554                  0.619                  1                    2   9.17        49.0      78.7       -0.510       0.561
##  3 Adelaide       SA    Other             0.746                  0.202                  2                    1   2.10        95.1      43.4       -0.351       0.403
##  4 Adelaide       SA    Visiting          0.435                  0.452                  1                    3  56.1         34.6      71.4       -0.501       1.01 
##  5 Adelaide Hills SA    Business          0.464                  0.179                  3                    0   0.103        0.968    -3.22      -0.600       0.497
##  6 Adelaide Hills SA    Holiday           0.528                  0.296                  2                    1   0.177       10.5      24.0       -0.481       0.350
##  7 Adelaide Hills SA    Other             0.593                  0.404                  2                    2   0.000444     4.28      3.19      -0.298       0.281
##  8 Adelaide Hills SA    Visiting          0.488                  0.254                  0                    3   6.50        34.2      -0.529     -0.472       0.446
##  9 Alice Springs  NT    Business          0.534                  0.251                  0                    1   0.169       23.8      19.5       -0.492       0.548
## 10 Alice Springs  NT    Holiday           0.381                  0.832                  3                    1   0.739      -19.6      10.5       -0.522       0.726
## # ℹ 294 more rows
…
stl_e_acf1 is the first autocorrelation coefficient

stl_e_acf10 is the sum of squares of the first ten autocorrelation coefficients

4.1.3 Other features

The source of the section

coef_hurst will calculate the Hurst coefficient of a time series which is a measure of “long memory”. A series with long memory will have significant autocorrelations for many lags.

tourism |>
  features(Trips, coef_hurst)

## # A tibble: 304 × 4
##    Region         State Purpose  coef_hurst
##    <chr>          <chr> <chr>         <dbl>
##  1 Adelaide       SA    Business      0.571
##  2 Adelaide       SA    Holiday       0.558
##  3 Adelaide       SA    Other         0.862
##  4 Adelaide       SA    Visiting      0.583
##  5 Adelaide Hills SA    Business      0.555
##  6 Adelaide Hills SA    Holiday       0.651
##  7 Adelaide Hills SA    Other         0.672
##  8 Adelaide Hills SA    Visiting      0.653
##  9 Alice Springs  NT    Business      0.713
## 10 Alice Springs  NT    Holiday       0.500
## # ℹ 294 more rows

Interpretation:

\(H = 0.5\): The time series is a random walk with no memory (random behavior).

\(H < 0.5\): The time series tends to reverse direction.

\(H > 0.5\): The time series is persistent, meaning that if the series has been increasing, it is more likely to continue increasing, and if it has been decreasing, it is more likely to continue decreasing.

feat_spectral will compute the (Shannon) spectral entropy of a time series, which is a measure of how easy the series is to forecast. A series which has strong trend and seasonality (and so is easy to forecast) will have entropy close to 0. A series that is very noisy (and so is difficult to forecast) will have entropy close to 1.

tourism |>
  features(Trips, feat_spectral)

## # A tibble: 304 × 4
##    Region         State Purpose  spectral_entropy
##    <chr>          <chr> <chr>               <dbl>
##  1 Adelaide       SA    Business            0.843
##  2 Adelaide       SA    Holiday             0.753
##  3 Adelaide       SA    Other               0.793
##  4 Adelaide       SA    Visiting            0.768
##  5 Adelaide Hills SA    Business            0.991
##  6 Adelaide Hills SA    Holiday             0.928
##  7 Adelaide Hills SA    Other               0.913
##  8 Adelaide Hills SA    Visiting            1    
##  9 Alice Springs  NT    Business            0.944
## 10 Alice Springs  NT    Holiday             0.544
## # ℹ 294 more rows

box_pierce gives the Box-Pierce statistic for testing if a time series is white noise, and the corresponding p-value.

tourism |>
  features(Trips, box_pierce)

## # A tibble: 304 × 5
##    Region         State Purpose   bp_stat  bp_pvalue
##    <chr>          <chr> <chr>       <dbl>      <dbl>
##  1 Adelaide       SA    Business  0.0886  0.766     
##  2 Adelaide       SA    Holiday   0.166   0.684     
##  3 Adelaide       SA    Other    21.4     0.00000379
##  4 Adelaide       SA    Visiting  0.374   0.541     
##  5 Adelaide Hills SA    Business  0.402   0.526     
##  6 Adelaide Hills SA    Holiday   1.38    0.240     
##  7 Adelaide Hills SA    Other     5.46    0.0195    
##  8 Adelaide Hills SA    Visiting  1.55    0.213     
##  9 Alice Springs  NT    Business  3.78    0.0518    
## 10 Alice Springs  NT    Holiday   0.00349 0.953     
## # ℹ 294 more rows

ljung_box gives the Ljung-Box statistic for testing if a time series is white noise, and the corresponding p-value.

tourism |>
  features(Trips, ljung_box)

## # A tibble: 304 × 5
##    Region         State Purpose   lb_stat  lb_pvalue
##    <chr>          <chr> <chr>       <dbl>      <dbl>
##  1 Adelaide       SA    Business  0.0919  0.762     
##  2 Adelaide       SA    Holiday   0.172   0.678     
##  3 Adelaide       SA    Other    22.2     0.00000248
##  4 Adelaide       SA    Visiting  0.388   0.533     
##  5 Adelaide Hills SA    Business  0.418   0.518     
##  6 Adelaide Hills SA    Holiday   1.43    0.231     
##  7 Adelaide Hills SA    Other     5.66    0.0173    
##  8 Adelaide Hills SA    Visiting  1.61    0.205     
##  9 Alice Springs  NT    Business  3.93    0.0476    
## 10 Alice Springs  NT    Holiday   0.00362 0.952     
## # ℹ 294 more rows

guerrero computes the optimal \(\lambda\) value for a Box-Cox transformation using the Guerrero method

tourism |>
  features(Trips, guerrero)

## # A tibble: 304 × 4
##    Region         State Purpose  lambda_guerrero
##    <chr>          <chr> <chr>              <dbl>
##  1 Adelaide       SA    Business         0.514  
##  2 Adelaide       SA    Holiday         -0.169  
##  3 Adelaide       SA    Other           -0.227  
##  4 Adelaide       SA    Visiting         0.870  
##  5 Adelaide Hills SA    Business         0.124  
##  6 Adelaide Hills SA    Holiday          0.246  
##  7 Adelaide Hills SA    Other            0.365  
##  8 Adelaide Hills SA    Visiting         0.00414
##  9 Alice Springs  NT    Business         0.561  
## 10 Alice Springs  NT    Holiday          0.00174
## # ℹ 294 more rows

4.2 Exploring Australian tourism data

The source of the section

tourism_features <- tourism |>
  features(Trips, feature_set(pkgs = "feasts"))
tourism_features

## # A tibble: 304 × 51
##    Region State Purpose trend_strength seasonal_strength_year seasonal_peak_year seasonal_trough_year spikiness linearity curvature stl_e_acf1 stl_e_acf10     acf1 acf10
##    <chr>  <chr> <chr>            <dbl>                  <dbl>              <dbl>                <dbl>     <dbl>     <dbl>     <dbl>      <dbl>       <dbl>    <dbl> <dbl>
##  1 Adela… SA    Busine…          0.464                  0.407                  3                    1   1.58e+2    -5.31     71.6       -0.532       0.594  0.0333  0.131
##  2 Adela… SA    Holiday          0.554                  0.619                  1                    2   9.17e+0    49.0      78.7       -0.510       0.561  0.0456  0.372
##  3 Adela… SA    Other            0.746                  0.202                  2                    1   2.10e+0    95.1      43.4       -0.351       0.403  0.517   1.15 
##  4 Adela… SA    Visiti…          0.435                  0.452                  1                    3   5.61e+1    34.6      71.4       -0.501       1.01   0.0684  0.294
##  5 Adela… SA    Busine…          0.464                  0.179                  3                    0   1.03e-1     0.968    -3.22      -0.600       0.497  0.0709  0.134
##  6 Adela… SA    Holiday          0.528                  0.296                  2                    1   1.77e-1    10.5      24.0       -0.481       0.350  0.131   0.313
##  7 Adela… SA    Other            0.593                  0.404                  2                    2   4.44e-4     4.28      3.19      -0.298       0.281  0.261   0.330
##  8 Adela… SA    Visiti…          0.488                  0.254                  0                    3   6.50e+0    34.2      -0.529     -0.472       0.446  0.139   0.117
##  9 Alice… NT    Busine…          0.534                  0.251                  0                    1   1.69e-1    23.8      19.5       -0.492       0.548  0.217   0.367
## 10 Alice… NT    Holiday          0.381                  0.832                  3                    1   7.39e-1   -19.6      10.5       -0.522       0.726 -0.00660 2.11 
## # ℹ 294 more rows
## # ℹ 37 more variables: diff1_acf1 <dbl>, diff1_acf10 <dbl>, diff2_acf1 <dbl>, diff2_acf10 <dbl>, season_acf1 <dbl>, pacf5 <dbl>, diff1_pacf5 <dbl>, diff2_pacf5 <dbl>,
## #   season_pacf <dbl>, zero_run_mean <dbl>, nonzero_squared_cv <dbl>, zero_start_prop <dbl>, zero_end_prop <dbl>, lambda_guerrero <dbl>, kpss_stat <dbl>,
## #   kpss_pvalue <dbl>, pp_stat <dbl>, pp_pvalue <dbl>, ndiffs <int>, nsdiffs <int>, bp_stat <dbl>, bp_pvalue <dbl>, lb_stat <dbl>, lb_pvalue <dbl>, var_tiled_var <dbl>,
## #   var_tiled_mean <dbl>, shift_level_max <dbl>, shift_level_index <dbl>, shift_var_max <dbl>, shift_var_index <dbl>, shift_kl_max <dbl>, shift_kl_index <dbl>,
## #   spectral_entropy <dbl>, n_crossing_points <int>, longest_flat_spot <int>, coef_hurst <dbl>, stat_arch_lm <dbl>
…
