Chapter 7 Time series regression models | Forecasting: Principles and Practice (3rd ed)
…
An example of this problem is the dummy variable trap discussed in Section 7.4. Suppose you have quarterly data and use four dummy variables, \(d_1, d_2, d_3\) and \(d_4\). Then \(d_4 = 1 - d_1 - d_2 - d_3\), so there is perfect correlation between \(d_4\) and \(d_1 + d_2 + d_3\).

Note! If you are using good statistical software, if you are not interested in the specific contributions of each predictor, and if the future values of your predictor variables are within their historical ranges, there is nothing to worry about — multicollinearity is not a problem except when there is perfect correlation.

7.9 Exercises

jan14_victoria_elec <- vic_elec |>
  filter(yearmonth(Time) == yearmonth('2014 Jan')) |>
  index_by(Date = as_date(Time)) |>
  summarise(Demand = sum(Demand),
            Temperature = max(Temperature))

jan14_victoria_elec

## # A tsibble: 31 x 3 [1D]
##    Date        Demand Temperature
##    <date>       <dbl>       <dbl>
##  1 2014-01-01 175185.        26  
##  2 2014-01-02 188351.        23  
##  3 2014-01-03 189086.        22.2
##  4 2014-01-04 173798.        20.3
##  5 2014-01-05 169733.        26.1
##  6 2014-01-06 195241.        19.6
##  7 2014-01-07 199770.        20  
##  8 2014-01-08 205339.        27.4
##  9 2014-01-09 227334.        32.4
## 10 2014-01-10 258111.        34  
## # ℹ 21 more rows
…
souvenirs

## # A tsibble: 84 x 2 [1M]
##       Month Sales
##       <mth> <dbl>
##  1 1987 Jan 1665.
##  2 1987 Feb 2398.
##  3 1987 Mar 2841.
##  4 1987 Apr 3547.
##  5 1987 May 3753.
##  6 1987 Jun 3715.
##  7 1987 Jul 4350.
##  8 1987 Aug 3566.
##  9 1987 Sep 5022.
## 10 1987 Oct 6423.
## # ℹ 74 more rows
…
