Chapter 2 Time series graphics | Forecasting: Principles and Practice (3rd ed)
…
AirPassengers |>
  as_tsibble() |> # creates index column fot time point
  rename(month = index)

## # A tsibble: 144 x 2 [1M]
##       month value
##       <mth> <dbl>
##  1 1949 Jan   112
##  2 1949 Feb   118
##  3 1949 Mar   132
##  4 1949 Apr   129
##  5 1949 May   121
##  6 1949 Jun   135
##  7 1949 Jul   148
##  8 1949 Aug   148
##  9 1949 Sep   136
## 10 1949 Oct   119
## # ℹ 134 more rows

2.1.2 The key variable

Multiple time series in a single object.

olympic_running

## # A tsibble: 312 x 4 [4Y]
## # Key:       Length, Sex [14]
##     Year Length Sex    Time
##    <int>  <int> <chr> <dbl>
##  1  1896    100 men    12  
##  2  1900    100 men    11  
##  3  1904    100 men    11  
##  4  1908    100 men    10.8
##  5  1912    100 men    10.8
##  6  1916    100 men    NA  
##  7  1920    100 men    10.8
##  8  1924    100 men    10.6
##  9  1928    100 men    10.8
## 10  1932    100 men    10.3
## # ℹ 302 more rows
…
key_vars(olympic_running)

## [1] "Length" "Sex"

2.1.3 Working with tsibble object

dplyr functions such as mutate(), filter(), select() and summarise() work with tsibble objects.

PBS

## # A tsibble: 67,596 x 9 [1M]
## # Key:       Concession, Type, ATC1, ATC2 [336]
##       Month Concession   Type        ATC1  ATC1_desc                       ATC2  ATC2_desc                   Scripts  Cost
##       <mth> <chr>        <chr>       <chr> <chr>                           <chr> <chr>                         <dbl> <dbl>
##  1 1991 Jul Concessional Co-payments A     Alimentary tract and metabolism A01   STOMATOLOGICAL PREPARATIONS   18228 67877
##  2 1991 Aug Concessional Co-payments A     Alimentary tract and metabolism A01   STOMATOLOGICAL PREPARATIONS   15327 57011
##  3 1991 Sep Concessional Co-payments A     Alimentary tract and metabolism A01   STOMATOLOGICAL PREPARATIONS   14775 55020
##  4 1991 Oct Concessional Co-payments A     Alimentary tract and metabolism A01   STOMATOLOGICAL PREPARATIONS   15380 57222
##  5 1991 Nov Concessional Co-payments A     Alimentary tract and metabolism A01   STOMATOLOGICAL PREPARATIONS   14371 52120
##  6 1991 Dec Concessional Co-payments A     Alimentary tract and metabolism A01   STOMATOLOGICAL PREPARATIONS   15028 54299
##  7 1992 Jan Concessional Co-payments A     Alimentary tract and metabolism A01   STOMATOLOGICAL PREPARATIONS   11040 39753
##  8 1992 Feb Concessional Co-payments A     Alimentary tract and metabolism A01   STOMATOLOGICAL PREPARATIONS   15165 54405
##  9 1992 Mar Concessional Co-payments A     Alimentary tract and metabolism A01   STOMATOLOGICAL PREPARATIONS   16898 61108
## 10 1992 Apr Concessional Co-payments A     Alimentary tract and metabolism A01   STOMATOLOGICAL PREPARATIONS   18141 65356
## # ℹ 67,586 more rows

PBS |>
  filter(ATC2 == 'A10')

## # A tsibble: 816 x 9 [1M]
## # Key:       Concession, Type, ATC1, ATC2 [4]
##       Month Concession   Type        ATC1  ATC1_desc                       ATC2  ATC2_desc            Scripts    Cost
##       <mth> <chr>        <chr>       <chr> <chr>                           <chr> <chr>                  <dbl>   <dbl>
##  1 1991 Jul Concessional Co-payments A     Alimentary tract and metabolism A10   ANTIDIABETIC THERAPY   89733 2092878
##  2 1991 Aug Concessional Co-payments A     Alimentary tract and metabolism A10   ANTIDIABETIC THERAPY   77101 1795733
##  3 1991 Sep Concessional Co-payments A     Alimentary tract and metabolism A10   ANTIDIABETIC THERAPY   76255 1777231
##  4 1991 Oct Concessional Co-payments A     Alimentary tract and metabolism A10   ANTIDIABETIC THERAPY   78681 1848507
##  5 1991 Nov Concessional Co-payments A     Alimentary tract and metabolism A10   ANTIDIABETIC THERAPY   70554 1686458
##  6 1991 Dec Concessional Co-payments A     Alimentary tract and metabolism A10   ANTIDIABETIC THERAPY   75814 1843079
##  7 1992 Jan Concessional Co-payments A     Alimentary tract and metabolism A10   ANTIDIABETIC THERAPY   64186 1564702
##  8 1992 Feb Concessional Co-payments A     Alimentary tract and metabolism A10   ANTIDIABETIC THERAPY   75899 1732508
##  9 1992 Mar Concessional Co-payments A     Alimentary tract and metabolism A10   ANTIDIABETIC THERAPY   89445 2046102
## 10 1992 Apr Concessional Co-payments A     Alimentary tract and metabolism A10   ANTIDIABETIC THERAPY   97315 2225977
## # ℹ 806 more rows

PBS |>
  filter(ATC2 == 'A10') |>
  select(Month, Concession, Type, Cost)

## # A tsibble: 816 x 4 [1M]
## # Key:       Concession, Type [4]
##       Month Concession   Type           Cost
##       <mth> <chr>        <chr>         <dbl>
##  1 1991 Jul Concessional Co-payments 2092878
##  2 1991 Aug Concessional Co-payments 1795733
##  3 1991 Sep Concessional Co-payments 1777231
##  4 1991 Oct Concessional Co-payments 1848507
##  5 1991 Nov Concessional Co-payments 1686458
##  6 1991 Dec Concessional Co-payments 1843079
##  7 1992 Jan Concessional Co-payments 1564702
##  8 1992 Feb Concessional Co-payments 1732508
##  9 1992 Mar Concessional Co-payments 2046102
## 10 1992 Apr Concessional Co-payments 2225977
## # ℹ 806 more rows
print(index_var(PBS))

## [1] "Month"

print(key_vars(PBS))

## [1] "Concession" "Type"       "ATC1"       "ATC2"

If no one index or key were not explicitly selected, they would be returned as they are required for tsibble to ensure each row contains a unique combination of keys and index.

PBS |>
  filter(ATC2 == 'A10') |>
  select(Cost)

## # A tsibble: 816 x 6 [1M]
## # Key:       Concession, Type, ATC1, ATC2 [4]
##       Cost    Month Concession   Type        ATC1  ATC2 
##      <dbl>    <mth> <chr>        <chr>       <chr> <chr>
##  1 2092878 1991 Jul Concessional Co-payments A     A10  
##  2 1795733 1991 Aug Concessional Co-payments A     A10  
##  3 1777231 1991 Sep Concessional Co-payments A     A10  
##  4 1848507 1991 Oct Concessional Co-payments A     A10  
##  5 1686458 1991 Nov Concessional Co-payments A     A10  
##  6 1843079 1991 Dec Concessional Co-payments A     A10  
##  7 1564702 1992 Jan Concessional Co-payments A     A10  
##  8 1732508 1992 Feb Concessional Co-payments A     A10  
##  9 2046102 1992 Mar Concessional Co-payments A     A10  
## 10 2225977 1992 Apr Concessional Co-payments A     A10  
## # ℹ 806 more rows

PBS |>
  filter(ATC2 == 'A10') |>
  select(Concession, Type, Cost)

## # A tsibble: 816 x 4 [1M]
## # Key:       Concession, Type [4]
##    Concession   Type           Cost    Month
##    <chr>        <chr>         <dbl>    <mth>
##  1 Concessional Co-payments 2092878 1991 Jul
##  2 Concessional Co-payments 1795733 1991 Aug
##  3 Concessional Co-payments 1777231 1991 Sep
##  4 Concessional Co-payments 1848507 1991 Oct
##  5 Concessional Co-payments 1686458 1991 Nov
##  6 Concessional Co-payments 1843079 1991 Dec
##  7 Concessional Co-payments 1564702 1992 Jan
##  8 Concessional Co-payments 1732508 1992 Feb
##  9 Concessional Co-payments 2046102 1992 Mar
## 10 Concessional Co-payments 2225977 1992 Apr
## # ℹ 806 more rows

PBS |>
  filter(ATC2 == 'A10') |>
  select(Month, Concession, Type, Cost) |>
  summarise(TotalC = sum(Cost))

## # A tsibble: 204 x 2 [1M]
##       Month  TotalC
##       <mth>   <dbl>
##  1 1991 Jul 3526591
##  2 1991 Aug 3180891
##  3 1991 Sep 3252221
##  4 1991 Oct 3611003
##  5 1991 Nov 3565869
##  6 1991 Dec 4306371
##  7 1992 Jan 5088335
##  8 1992 Feb 2814520
##  9 1992 Mar 2985811
## 10 1992 Apr 3204780
## # ℹ 194 more rows

PBS |>
  filter(ATC2 == 'A10') |>
  select(Month, Concession, Type, Cost) |>
  summarise(TotalC = sum(Cost)) |>
  mutate(Cost = TotalC / 1e6)

## # A tsibble: 204 x 3 [1M]
##       Month  TotalC  Cost
##       <mth>   <dbl> <dbl>
##  1 1991 Jul 3526591  3.53
##  2 1991 Aug 3180891  3.18
##  3 1991 Sep 3252221  3.25
##  4 1991 Oct 3611003  3.61
##  5 1991 Nov 3565869  3.57
##  6 1991 Dec 4306371  4.31
##  7 1992 Jan 5088335  5.09
##  8 1992 Feb 2814520  2.81
##  9 1992 Mar 2985811  2.99
## 10 1992 Apr 3204780  3.20
## # ℹ 194 more rows

Save to the further usage.

PBS |>
  filter(ATC2 == 'A10') |>
  select(Month, Concession, Type, Cost) |>
  summarise(TotalC = sum(Cost)) |>
  mutate(Cost = TotalC / 1e6) -> a10

a10

## # A tsibble: 204 x 3 [1M]
##       Month  TotalC  Cost
##       <mth>   <dbl> <dbl>
##  1 1991 Jul 3526591  3.53
##  2 1991 Aug 3180891  3.18
##  3 1991 Sep 3252221  3.25
##  4 1991 Oct 3611003  3.61
##  5 1991 Nov 3565869  3.57
##  6 1991 Dec 4306371  4.31
##  7 1992 Jan 5088335  5.09
##  8 1992 Feb 2814520  2.81
##  9 1992 Mar 2985811  2.99
## 10 1992 Apr 3204780  3.20
## # ℹ 194 more rows

2.1.4 Read a csv file and convert to a tsibble

prison <- import('https://OTexts.com/fpp3/extrafiles/prison_population.csv')

prison <- prison |>
  mutate(Quarter = yearquarter(Date)) |>
  select(-Date) |>
  as_tsibble(key = c(State, Gender, Legal, Indigenous))

## Using `Quarter` as index variable.

prison

## # A tsibble: 3,072 x 6 [1Q]
## # Key:       State, Gender, Legal, Indigenous [64]
##    State Gender Legal    Indigenous Count Quarter
##    <chr> <chr>  <chr>    <chr>      <int>   <qtr>
##  1 ACT   Female Remanded ATSI           0 2005 Q1
##  2 ACT   Female Remanded ATSI           1 2005 Q2
##  3 ACT   Female Remanded ATSI           0 2005 Q3
##  4 ACT   Female Remanded ATSI           0 2005 Q4
##  5 ACT   Female Remanded ATSI           1 2006 Q1
##  6 ACT   Female Remanded ATSI           1 2006 Q2
##  7 ACT   Female Remanded ATSI           1 2006 Q3
##  8 ACT   Female Remanded ATSI           0 2006 Q4
##  9 ACT   Female Remanded ATSI           0 2007 Q1
## 10 ACT   Female Remanded ATSI           1 2007 Q2
## # ℹ 3,062 more rows
…
Seconds
60
3600
86400
604800
31557600

2.2 Time plot

The source of the section

a10

## # A tsibble: 204 x 3 [1M]
##       Month  TotalC  Cost
##       <mth>   <dbl> <dbl>
##  1 1991 Jul 3526591  3.53
##  2 1991 Aug 3180891  3.18
##  3 1991 Sep 3252221  3.25
##  4 1991 Oct 3611003  3.61
##  5 1991 Nov 3565869  3.57
##  6 1991 Dec 4306371  4.31
##  7 1992 Jan 5088335  5.09
##  8 1992 Feb 2814520  2.81
##  9 1992 Mar 2985811  2.99
## 10 1992 Apr 3204780  3.20
## # ℹ 194 more rows
…
ansett

## # A tsibble: 7,407 x 4 [1W]
## # Key:       Airports, Class [30]
##        Week Airports Class    Passengers
##      <week> <chr>    <chr>         <dbl>
##  1 1989 W28 ADL-PER  Business        193
##  2 1989 W29 ADL-PER  Business        254
##  3 1989 W30 ADL-PER  Business        185
##  4 1989 W31 ADL-PER  Business        254
##  5 1989 W32 ADL-PER  Business        191
##  6 1989 W33 ADL-PER  Business        136
##  7 1989 W34 ADL-PER  Business          0
##  8 1989 W35 ADL-PER  Business          0
##  9 1989 W36 ADL-PER  Business          0
## 10 1989 W37 ADL-PER  Business          0
## # ℹ 7,397 more rows
…
This plot is useful to identify changing within particular seasons.

2.5.1 Example: Australian holiday tourism

holidays <- tourism |>
  filter(Purpose == 'Holiday') |>
  group_by(State) |>
  summarise(Trips = sum(Trips))

holidays

## # A tsibble: 640 x 3 [1Q]
## # Key:       State [8]
##    State Quarter Trips
##    <chr>   <qtr> <dbl>
##  1 ACT   1998 Q1  196.
##  2 ACT   1998 Q2  127.
##  3 ACT   1998 Q3  111.
##  4 ACT   1998 Q4  170.
##  5 ACT   1999 Q1  108.
##  6 ACT   1999 Q2  125.
##  7 ACT   1999 Q3  178.
##  8 ACT   1999 Q4  218.
##  9 ACT   2000 Q1  158.
## 10 ACT   2000 Q2  155.
## # ℹ 630 more rows
…
2.6 Scatterplots

The source of the section

Scatterplots are useful to explore relationship between time series.

vic_elec_day_type = vic_elec |>
  filter(year(Time) == 2014) |>
  mutate(Day_Type =  case_when(Holiday ~ "Holiday",
                               wday(Date) %in% 2:6 ~ "Weekday",
                               TRUE ~ "Weekend"))

vic_elec_day_type

## # A tsibble: 17,520 x 6 [30m] <Australia/Melbourne>
##    Time                Demand Temperature Date       Holiday Day_Type
##    <dttm>               <dbl>       <dbl> <date>     <lgl>   <chr>   
##  1 2014-01-01 00:00:00  4092.        18.7 2014-01-01 TRUE    Holiday 
##  2 2014-01-01 00:30:00  4198.        18.1 2014-01-01 TRUE    Holiday 
##  3 2014-01-01 01:00:00  3915.        18.2 2014-01-01 TRUE    Holiday 
##  4 2014-01-01 01:30:00  3673.        17.9 2014-01-01 TRUE    Holiday 
##  5 2014-01-01 02:00:00  3498.        17.6 2014-01-01 TRUE    Holiday 
##  6 2014-01-01 02:30:00  3339.        16.8 2014-01-01 TRUE    Holiday 
##  7 2014-01-01 03:00:00  3204.        16.3 2014-01-01 TRUE    Holiday 
##  8 2014-01-01 03:30:00  3100.        16.6 2014-01-01 TRUE    Holiday 
##  9 2014-01-01 04:00:00  3039.        16.6 2014-01-01 TRUE    Holiday 
## 10 2014-01-01 04:30:00  3012.        16.7 2014-01-01 TRUE    Holiday 
## # ℹ 17,510 more rows
…
2.6.1 Correlation

The correlation coefficient.

\[
r = \frac {\sum{(x_t - \bar{x})(y_t - \bar{y})}}{\sqrt{\sum(x_t - \bar{x})^2}\sqrt{\sum(y_t - \bar{y})^2}}, -1 \leq r \leq 1
\]

2.6.2 Scatterplot matrices

tourism

## # A tsibble: 24,320 x 5 [1Q]
## # Key:       Region, State, Purpose [304]
##    Quarter Region   State Purpose  Trips
##      <qtr> <chr>    <chr> <chr>    <dbl>
##  1 1998 Q1 Adelaide SA    Business  135.
##  2 1998 Q2 Adelaide SA    Business  110.
##  3 1998 Q3 Adelaide SA    Business  166.
##  4 1998 Q4 Adelaide SA    Business  127.
##  5 1999 Q1 Adelaide SA    Business  137.
##  6 1999 Q2 Adelaide SA    Business  200.
##  7 1999 Q3 Adelaide SA    Business  169.
##  8 1999 Q4 Adelaide SA    Business  134.
##  9 2000 Q1 Adelaide SA    Business  154.
## 10 2000 Q2 Adelaide SA    Business  169.
## # ℹ 24,310 more rows

visitors <- tourism |>
  group_by(State) |>
  summarise(Trips = sum(Trips))

visitors

## # A tsibble: 640 x 3 [1Q]
## # Key:       State [8]
##    State Quarter Trips
##    <chr>   <qtr> <dbl>
##  1 ACT   1998 Q1  551.
##  2 ACT   1998 Q2  416.
##  3 ACT   1998 Q3  436.
##  4 ACT   1998 Q4  450.
##  5 ACT   1999 Q1  379.
##  6 ACT   1999 Q2  558.
##  7 ACT   1999 Q3  449.
##  8 ACT   1999 Q4  595.
##  9 ACT   2000 Q1  600.
## 10 ACT   2000 Q2  557.
## # ℹ 630 more rows
…
2.7 Lag plots

The source of the section

Lag plot uses to identify relationship between multiple time series.

new_production <- aus_production |>
  filter(year(Quarter) >= 1992)

new_production

## # A tsibble: 74 x 7 [1Q]
##    Quarter  Beer Tobacco Bricks Cement Electricity   Gas
##      <qtr> <dbl>   <dbl>  <dbl>  <dbl>       <dbl> <dbl>
##  1 1992 Q1   443    5777    383   1289       38332   117
##  2 1992 Q2   410    5853    404   1501       39774   151
##  3 1992 Q3   420    6416    446   1539       42246   175
##  4 1992 Q4   532    5825    420   1568       38498   129
##  5 1993 Q1   433    5724    394   1450       39460   116
##  6 1993 Q2   421    6036    462   1668       41356   149
##  7 1993 Q3   410    6570    475   1648       42949   163
##  8 1993 Q4   512    5675    443   1863       40974   138
##  9 1994 Q1   449    5311    421   1468       40162   127
## 10 1994 Q2   381    5717    475   1755       41199   159
## # ℹ 64 more rows
…
google_2015 <- gafa_stock |>
  filter(Symbol == 'GOOG', year(Date) == 2015) |>
  select(Date, Close)

google_2015

## # A tsibble: 252 x 2 [!]
##    Date       Close
##    <date>     <dbl>
##  1 2015-01-02  522.
##  2 2015-01-05  511.
##  3 2015-01-06  499.
##  4 2015-01-07  498.
##  5 2015-01-08  500.
##  6 2015-01-09  493.
##  7 2015-01-12  490.
##  8 2015-01-13  493.
##  9 2015-01-14  498.
## 10 2015-01-15  499.
## # ℹ 242 more rows
…
For white noise series, we expect each autocorrelation to be close to zero. For a white noise series, we expect 95% of the spikes in the ACF to lie within \(\pm 1.96/\sqrt{T}\), where \(T\) is the length of the time series.

If one or more large spikes are outside these bounds, or if substantially more than 5% of spikes are outside these bounds, then the series is probably not white noise.

2.10 Excercises

Bricks from aus_production

?aus_production
# Quarterly estimates of selected indicators of manufacturing production in Australia.
# Bricks:   Clay brick production in millions of bricks.

aus_production

## # A tsibble: 218 x 7 [1Q]
##    Quarter  Beer Tobacco Bricks Cement Electricity   Gas
##      <qtr> <dbl>   <dbl>  <dbl>  <dbl>       <dbl> <dbl>
##  1 1956 Q1   284    5225    189    465        3923     5
##  2 1956 Q2   213    5178    204    532        4436     6
##  3 1956 Q3   227    5297    208    561        4806     7
##  4 1956 Q4   308    5681    197    570        4418     6
##  5 1957 Q1   262    5577    187    529        4339     5
##  6 1957 Q2   228    5651    214    604        4811     7
##  7 1957 Q3   236    5317    227    603        5259     7
##  8 1957 Q4   320    6152    222    582        4735     6
##  9 1958 Q1   272    5758    199    554        4608     5
## 10 1958 Q2   233    5641    229    620        5196     7
## # ℹ 208 more rows
…
Lynx from pelt

?pelt
# Hudson Bay Company trading records for Snowshoe Hare and Canadian Lynx furs from 1845 to 1935. This data contains trade records for all areas of the company.
# Lynx: The number of Canadian Lynx pelts traded.

pelt

## # A tsibble: 91 x 3 [1Y]
##     Year  Hare  Lynx
##    <dbl> <dbl> <dbl>
##  1  1845 19580 30090
##  2  1846 19600 45150
##  3  1847 19610 49150
##  4  1848 11990 39520
##  5  1849 28040 21230
##  6  1850 58000  8420
##  7  1851 74600  5560
##  8  1852 75090  5080
##  9  1853 88480 10170
## 10  1854 61280 19600
## # ℹ 81 more rows
…
Close from gafa_stock

?gafa_stock
# Historical stock prices from 2014-2018 for Google, Amazon, Facebook and Apple. All prices are in $USD.
# Close:    The closing price for the stock.

gafa_stock

## # A tsibble: 5,032 x 8 [!]
## # Key:       Symbol [4]
##    Symbol Date        Open  High   Low Close Adj_Close    Volume
##    <chr>  <date>     <dbl> <dbl> <dbl> <dbl>     <dbl>     <dbl>
##  1 AAPL   2014-01-02  79.4  79.6  78.9  79.0      67.0  58671200
##  2 AAPL   2014-01-03  79.0  79.1  77.2  77.3      65.5  98116900
##  3 AAPL   2014-01-06  76.8  78.1  76.2  77.7      65.9 103152700
##  4 AAPL   2014-01-07  77.8  78.0  76.8  77.1      65.4  79302300
##  5 AAPL   2014-01-08  77.0  77.9  77.0  77.6      65.8  64632400
##  6 AAPL   2014-01-09  78.1  78.1  76.5  76.6      65.0  69787200
##  7 AAPL   2014-01-10  77.1  77.3  75.9  76.1      64.5  76244000
##  8 AAPL   2014-01-13  75.7  77.5  75.7  76.5      64.9  94623200
##  9 AAPL   2014-01-14  76.9  78.1  76.8  78.1      66.1  83140400
## 10 AAPL   2014-01-15  79.1  80.0  78.8  79.6      67.5  97909700
## # ℹ 5,022 more rows
…
Demand from vic_elec

?vic_elec
# vic_elec is a half-hourly tsibble with three values:
# Demand:   Total electricity demand in MWh.

vic_elec

## # A tsibble: 52,608 x 5 [30m] <Australia/Melbourne>
##    Time                Demand Temperature Date       Holiday
##    <dttm>               <dbl>       <dbl> <date>     <lgl>  
##  1 2012-01-01 00:00:00  4383.        21.4 2012-01-01 TRUE   
##  2 2012-01-01 00:30:00  4263.        21.0 2012-01-01 TRUE   
##  3 2012-01-01 01:00:00  4049.        20.7 2012-01-01 TRUE   
##  4 2012-01-01 01:30:00  3878.        20.6 2012-01-01 TRUE   
##  5 2012-01-01 02:00:00  4036.        20.4 2012-01-01 TRUE   
##  6 2012-01-01 02:30:00  3866.        20.2 2012-01-01 TRUE   
##  7 2012-01-01 03:00:00  3694.        20.1 2012-01-01 TRUE   
##  8 2012-01-01 03:30:00  3562.        19.6 2012-01-01 TRUE   
##  9 2012-01-01 04:00:00  3433.        19.1 2012-01-01 TRUE   
## 10 2012-01-01 04:30:00  3359.        19.0 2012-01-01 TRUE   
## # ℹ 52,598 more rows
…
